module gitlab.com/tokend/blob-svc

go 1.18

require (
	github.com/Masterminds/squirrel v1.4.0
	github.com/alecthomas/kingpin v2.2.6+incompatible
	github.com/go-chi/chi v4.1.2+incompatible
	github.com/go-errors/errors v1.0.1
	github.com/go-ozzo/ozzo-validation/v4 v4.2.1
	github.com/jmoiron/sqlx v1.2.0
	github.com/lib/pq v1.10.0
	github.com/pkg/errors v0.9.1
	github.com/rubenv/sql-migrate v1.1.2
	github.com/spf13/cast v1.4.1
	gitlab.com/distributed_lab/ape v1.7.1
	gitlab.com/distributed_lab/figure v2.1.0+incompatible
	gitlab.com/distributed_lab/kit v1.11.1
	gitlab.com/distributed_lab/logan v3.8.1+incompatible
	gitlab.com/tokend/connectors v0.1.9
	gitlab.com/tokend/go v3.16.0+incompatible
	gitlab.com/tokend/horizon-connector v4.3.1+incompatible
	gitlab.com/tokend/keypair v0.0.0-20190412110653-b9d7e0c8b312
	gitlab.com/tokend/regources v4.9.2-0.20210809204843-6ec3aa755883+incompatible
	golang.org/x/net v0.0.0-20210805182204-aaa1db679c0d
)

require (
	github.com/alecthomas/template v0.0.0-20190718012654-fb15b899a751 // indirect
	github.com/alecthomas/units v0.0.0-20211218093645-b94a6e3cc137 // indirect
	github.com/certifi/gocertifi v0.0.0-20200211180108-c7c1fbc02894 // indirect
	github.com/fatih/structs v1.1.0 // indirect
	github.com/fsnotify/fsnotify v1.4.9 // indirect
	github.com/getsentry/raven-go v0.2.0 // indirect
	github.com/getsentry/sentry-go v0.7.0 // indirect
	github.com/go-gorp/gorp/v3 v3.0.2 // indirect
	github.com/go-ozzo/ozzo-validation v3.6.0+incompatible // indirect
	github.com/google/jsonapi v0.0.0-20200226002910-c8283f632fb7 // indirect
	github.com/hashicorp/hcl v1.0.0 // indirect
	github.com/lann/builder v0.0.0-20180802200727-47ae307949d0 // indirect
	github.com/lann/ps v0.0.0-20150810152359-62de8c46ede0 // indirect
	github.com/magiconair/properties v1.8.5 // indirect
	github.com/mitchellh/mapstructure v1.4.1 // indirect
	github.com/nullstyle/go-xdr v0.0.0-20180726165426-f4c839f75077 // indirect
	github.com/oklog/ulid v1.3.1 // indirect
	github.com/pelletier/go-toml v1.9.3 // indirect
	github.com/sirupsen/logrus v1.8.1 // indirect
	github.com/spf13/afero v1.6.0 // indirect
	github.com/spf13/jwalterweatherman v1.1.0 // indirect
	github.com/spf13/pflag v1.0.5 // indirect
	github.com/spf13/viper v1.8.1 // indirect
	github.com/subosito/gotenv v1.2.0 // indirect
	gitlab.com/distributed_lab/json-api-connector v0.2.4 // indirect
	gitlab.com/distributed_lab/lorem v0.2.0 // indirect
	gitlab.com/distributed_lab/running v1.6.0 // indirect
	golang.org/x/crypto v0.0.0-20200820211705-5c72a883971a // indirect
	golang.org/x/sys v0.0.0-20210809222454-d867a43fc93e // indirect
	golang.org/x/text v0.3.6 // indirect
	gopkg.in/ini.v1 v1.62.0 // indirect
	gopkg.in/yaml.v2 v2.4.0 // indirect
	gotest.tools v2.2.0+incompatible // indirect
)
